{
  "images" : [
    {
      "filename" : "navigation-back-arrow~universal@1x.png",
      "scale" : "1x",
      "idiom" : "universal"
    },
    {
      "filename" : "navigation-back-arrow~universal@2x.png",
      "scale" : "2x",
      "idiom" : "universal"
    },
    {
      "filename" : "navigation-back-arrow~universal@3x.png",
      "scale" : "3x",
      "idiom" : "universal"
    }
  ],
  "info" : {
    "author" : "xcode",
    "version" : 1
  }
}